D:\work\Y3\1\SoftDev\StoreProject\src\main\java\ui\ProductPanel.java
D:\work\Y3\1\SoftDev\StoreProject\src\main\java\ui\TestDialog.java
D:\work\Y3\1\SoftDev\StoreProject\src\main\java\TestUpdateProduct.java
D:\work\Y3\1\SoftDev\StoreProject\src\main\java\model\Product.java
D:\work\Y3\1\SoftDev\StoreProject\src\main\java\TestUpdateCustomer.java
D:\work\Y3\1\SoftDev\StoreProject\src\main\java\Non.java
D:\work\Y3\1\SoftDev\StoreProject\src\main\java\dao\CustomerDao.java
D:\work\Y3\1\SoftDev\StoreProject\src\main\java\TestDeleteCustomer.java
D:\work\Y3\1\SoftDev\StoreProject\src\main\java\dao\UserDao.java
D:\work\Y3\1\SoftDev\StoreProject\src\main\java\TestDeleteProduct1.java
D:\work\Y3\1\SoftDev\StoreProject\src\main\java\model\Customer.java
D:\work\Y3\1\SoftDev\StoreProject\src\main\java\TestInsertProduct.java
D:\work\Y3\1\SoftDev\StoreProject\src\main\java\TestSelectCustomer.java
D:\work\Y3\1\SoftDev\StoreProject\src\main\java\database\Database.java
D:\work\Y3\1\SoftDev\StoreProject\src\main\java\TestInsertCustomer.java
D:\work\Y3\1\SoftDev\StoreProject\src\main\java\TestSelectUser.java
D:\work\Y3\1\SoftDev\StoreProject\src\main\java\dao\DaoInterface.java
D:\work\Y3\1\SoftDev\StoreProject\src\main\java\TestUpdateUser.java
D:\work\Y3\1\SoftDev\StoreProject\src\main\java\TestSelectProduct.java
D:\work\Y3\1\SoftDev\StoreProject\src\main\java\dao\ProductDao.java
D:\work\Y3\1\SoftDev\StoreProject\src\main\java\TestInsertUser.java
D:\work\Y3\1\SoftDev\StoreProject\src\main\java\TestDeleteUser.java
D:\work\Y3\1\SoftDev\StoreProject\src\main\java\TestConnect.java
D:\work\Y3\1\SoftDev\StoreProject\src\main\java\model\User.java
